DOCUMENT_BODY:
	appGrpArtNumber: 2653
	appGrpArtNumberFacet: 2653
	transactions:
		№ 0
			recordDate: 2015-04-07 00:00:00
			code: PGM/
			description: Recordation of Patent Grant Mailed
		№ 1
			recordDate: 2015-04-07 00:00:00
			code: PTAC
			description: Patent Issue Date Used in PTA Calculation
		№ 2
			recordDate: 2015-03-19 00:00:00
			code: EML_NTR
			description: Email Notification
		№ 3
			recordDate: 2015-03-18 00:00:00
			code: WPIR
			description: Issue Notification Mailed
		№ 4
			recordDate: 2015-03-03 00:00:00
			code: D1935
			description: Dispatch to FDC
		№ 5
			recordDate: 2015-03-02 00:00:00
			code: PILS
			description: Application Is Considered Ready for Issue
		№ 6
			recordDate: 2015-02-26 00:00:00
			code: N084
			description: Issue Fee Payment Verified
		№ 7
			recordDate: 2015-02-26 00:00:00
			code: IFEE
			description: Issue Fee Payment Received
		№ 8
			recordDate: 2014-12-05 00:00:00
			code: ELC_RVW
			description: Electronic Review
		№ 9
			recordDate: 2014-12-05 00:00:00
			code: EML_NTF
			description: Email Notification
		№ 10
			recordDate: 2014-12-05 00:00:00
			code: MN/=.
			description: Mail Notice of Allowance
		№ 11
			recordDate: 2014-12-02 00:00:00
			code: N/=.
			description: Notice of Allowance Data Verification Completed
		№ 12
			recordDate: 2014-12-01 00:00:00
			code: EX.R
			description: Reasons for Allowance
		№ 13
			recordDate: 2014-11-24 00:00:00
			code: FWDX
			description: Date Forwarded to Examiner
		№ 14
			recordDate: 2014-11-24 00:00:00
			code: ABN9
			description: Disposal for a RCE / CPA / R129
		№ 15
			recordDate: 2014-11-21 00:00:00
			code: RCEX
			description: Request for Continued Examination (RCE)
		№ 16
			recordDate: 2014-11-21 00:00:00
			code: BRCE
			description: Workflow - Request for RCE - Begin
		№ 17
			recordDate: 2014-10-31 00:00:00
			code: EML_NTR
			description: Email Notification
		№ 18
			recordDate: 2014-10-31 00:00:00
			code: MEXIA
			description: Mail Applicant Initiated Interview Summary
		№ 19
			recordDate: 2014-10-28 00:00:00
			code: EXAT
			description: Interview Summary - Applicant Initiated - Telephonic
		№ 20
			recordDate: 2014-10-28 00:00:00
			code: EXIA
			description: Interview Summary- Applicant Initiated
		№ 21
			recordDate: 2014-08-22 00:00:00
			code: ELC_RVW
			description: Electronic Review
		№ 22
			recordDate: 2014-08-22 00:00:00
			code: EML_NTF
			description: Email Notification
		№ 23
			recordDate: 2014-08-22 00:00:00
			code: MCTFR
			description: Mail Final Rejection (PTOL - 326)
		№ 24
			recordDate: 2014-08-19 00:00:00
			code: CTFR
			description: Final Rejection
		№ 25
			recordDate: 2014-03-18 00:00:00
			code: FWDX
			description: Date Forwarded to Examiner
		№ 26
			recordDate: 2014-03-17 00:00:00
			code: A...
			description: Response after Non-Final Action
		№ 27
			recordDate: 2014-02-10 00:00:00
			code: EML_NTR
			description: Email Notification
		№ 28
			recordDate: 2014-02-10 00:00:00
			code: MEXIA
			description: Mail Applicant Initiated Interview Summary
		№ 29
			recordDate: 2014-02-04 00:00:00
			code: EXAT
			description: Interview Summary - Applicant Initiated - Telephonic
		№ 30
			recordDate: 2014-02-04 00:00:00
			code: EXIA
			description: Interview Summary- Applicant Initiated
		№ 31
			recordDate: 2013-12-17 00:00:00
			code: ELC_RVW
			description: Electronic Review
		№ 32
			recordDate: 2013-12-17 00:00:00
			code: EML_NTF
			description: Email Notification
		№ 33
			recordDate: 2013-12-17 00:00:00
			code: MCTNF
			description: Mail Non-Final Rejection
		№ 34
			recordDate: 2013-12-04 00:00:00
			code: CTNF
			description: Non-Final Rejection
		№ 35
			recordDate: 2013-04-23 00:00:00
			code: DOCK
			description: Case Docketed to Examiner in GAU
		№ 36
			recordDate: 2013-03-05 00:00:00
			code: DOCK
			description: Case Docketed to Examiner in GAU
		№ 37
			recordDate: 2013-01-18 00:00:00
			code: C602
			description: Oath or Declaration Filed (Including Supplemental)
		№ 38
			recordDate: 2013-01-08 00:00:00
			code: OIPE
			description: Application Dispatched from OIPE
		№ 39
			recordDate: 2012-12-19 00:00:00
			code: EML_NTR
			description: Email Notification
		№ 40
			recordDate: 2012-12-19 00:00:00
			code: EML_NTR
			description: Email Notification
		№ 41
			recordDate: 2012-12-19 00:00:00
			code: PA..
			description: Change in Power of Attorney (May Include Associate POA)
		№ 42
			recordDate: 2012-12-19 00:00:00
			code: COMP
			description: Application Is Now Complete
		№ 43
			recordDate: 2012-12-19 00:00:00
			code: FLRCPT.O
			description: Filing Receipt
		№ 44
			recordDate: 2012-12-18 00:00:00
			code: PGPC
			description: Sent to Classification Contractor
		№ 45
			recordDate: 2012-11-26 00:00:00
			code: L194
			description: Cleared by OIPE CSR
		№ 46
			recordDate: 2012-11-21 00:00:00
			code: SCAN
			description: IFW Scan & PACR Auto Security Review
		№ 47
			recordDate: 2012-11-20 00:00:00
			code: NPRQ
			description: PGPubs nonPub Request
		№ 48
			recordDate: 2012-11-20 00:00:00
			code: APPERMS
			description: Applicants have given acceptable permission for participating foreign 
		№ 49
			recordDate: 2012-11-20 00:00:00
			code: IEXX
			description: Initial Exam Team nn
	appStatus: Patented Case
	appStatus_txt: Patented Case
	appStatusFacet: Patented Case
	patentNumber: 9001977
	applIdStr: 13682596
	appl_id_txt: 13682596
	appEarlyPubNumber: 
	appEntityStatus: UNDISCOUNTED
	id: 13682596
	appSubCls: 088020
	appLocation: ELECTRONIC
	appAttrDockNumber: AM2-0842US
	appType: Utility
	appTypeFacet: Utility
	appCustNumber: 29150
	applicants:
		№ 0
			nameLineOne: Amazon Technologies, Inc.
			nameLineTwo:  
			suffix: 
			streetOne: 
			streetTwo: 
			city: Reno, 
			geoCode: NV
			country: (US)
			rankNo: 4
	applicantsFacet: {|Amazon Technologies, Inc.||||Reno|NV|US|4}
	appStatusDate: 2015-03-18T12:12:48Z
	LAST_MOD_TS: 2017-04-05T08:22:16Z
	patentIssueDate: 2015-04-07T04:00:00Z
	APP_IND: 1
	appExamName: HUYNH, VAN D
	appExamNameFacet: HUYNH, VAN D
	firstInventorFile: No
	appClsSubCls: 379/088020
	appClsSubClsFacet: 379/088020
	applId: 13682596
	patentTitle: Telephone-based User Authentication
	appIntlPubNumber: 
	appConfrNumber: 8782
	appFilingDate: 2012-11-20T05:00:00Z
	firstNamedApplicant:  Amazon Technologies, Inc.
	firstNamedApplicantFacet:  Amazon Technologies, Inc.
	inventors:
		№ 0
			nameLineOne: Harsha  Ramalingam
			nameLineTwo:  
			suffix: 
			streetOne: 
			streetTwo: 
			city: Kirkland, 
			geoCode: WA
			country: (US)
			rankNo: 1
		№ 1
			nameLineOne: Bhavnish H. Lathia
			nameLineTwo:  
			suffix: 
			streetOne: 
			streetTwo: 
			city: Redmond, 
			geoCode: WA
			country: (US)
			rankNo: 3
		№ 2
			nameLineOne: Jesper M. Johansson
			nameLineTwo:  
			suffix: 
			streetOne: 
			streetTwo: 
			city: Redmond, 
			geoCode: WA
			country: (US)
			rankNo: 2
	appCls: 379
	_version_: 1580433199421456387
	lastUpdatedTimestamp: 2017-10-05T15:49:11.086Z
METADATA:
	indexLastUpdatedDate: Sat Nov 25 14:40:32 EST 2017
	queryId: 387aa367-becb-4d53-bb4d-b05b5e55e7d5
	responseHeader:
			status: 0
			QTime: 17
