DOCUMENT_BODY:
	appGrpArtNumber: 3625
	appGrpArtNumberFacet: 3625
	transactions:
		№ 0
			recordDate: 2015-08-25 00:00:00
			code: PGM/
			description: Recordation of Patent Grant Mailed
		№ 1
			recordDate: 2015-08-25 00:00:00
			code: PTAC
			description: Patent Issue Date Used in PTA Calculation
		№ 2
			recordDate: 2015-08-06 00:00:00
			code: EML_NTR
			description: Email Notification
		№ 3
			recordDate: 2015-08-05 00:00:00
			code: WPIR
			description: Issue Notification Mailed
		№ 4
			recordDate: 2015-07-20 00:00:00
			code: D1935
			description: Dispatch to FDC
		№ 5
			recordDate: 2015-07-20 00:00:00
			code: PILS
			description: Application Is Considered Ready for Issue
		№ 6
			recordDate: 2015-07-15 00:00:00
			code: N084
			description: Issue Fee Payment Verified
		№ 7
			recordDate: 2015-07-15 00:00:00
			code: IFEE
			description: Issue Fee Payment Received
		№ 8
			recordDate: 2015-05-18 00:00:00
			code: ELC_RVW
			description: Electronic Review
		№ 9
			recordDate: 2015-05-18 00:00:00
			code: EML_NTF
			description: Email Notification
		№ 10
			recordDate: 2015-05-18 00:00:00
			code: MN/=.
			description: Mail Notice of Allowance
		№ 11
			recordDate: 2015-05-14 00:00:00
			code: N/=.
			description: Notice of Allowance Data Verification Completed
		№ 12
			recordDate: 2015-05-14 00:00:00
			code: DOCK
			description: Case Docketed to Examiner in GAU
		№ 13
			recordDate: 2015-05-11 00:00:00
			code: EX.R
			description: Reasons for Allowance
		№ 14
			recordDate: 2015-05-11 00:00:00
			code: EXET
			description: Interview Summary - Examiner Initiated - Telephonic
		№ 15
			recordDate: 2015-05-11 00:00:00
			code: EX.A
			description: Examiner's Amendment Communication
		№ 16
			recordDate: 2015-05-11 00:00:00
			code: EXIE
			description: Interview Summary - Examiner Initiated
		№ 17
			recordDate: 2015-05-06 00:00:00
			code: IDSC
			description: Information Disclosure Statement considered
		№ 18
			recordDate: 2015-03-12 00:00:00
			code: FWDX
			description: Date Forwarded to Examiner
		№ 19
			recordDate: 2015-03-03 00:00:00
			code: EIDS.
			description: Electronic Information Disclosure Statement
		№ 20
			recordDate: 2015-03-03 00:00:00
			code: LET.
			description: Miscellaneous Incoming Letter
		№ 21
			recordDate: 2015-03-03 00:00:00
			code: A...
			description: Response after Non-Final Action
		№ 22
			recordDate: 2015-03-03 00:00:00
			code: WIDS
			description: Information Disclosure Statement (IDS) Filed
		№ 23
			recordDate: 2015-02-09 00:00:00
			code: MEXAT
			description: Mail Interview Summary - Applicant Initiated - Telephonic
		№ 24
			recordDate: 2015-02-04 00:00:00
			code: EXAT
			description: Interview Summary - Applicant Initiated - Telephonic
		№ 25
			recordDate: 2015-02-04 00:00:00
			code: EXIA
			description: Interview Summary- Applicant Initiated
		№ 26
			recordDate: 2014-12-03 00:00:00
			code: ELC_RVW
			description: Electronic Review
		№ 27
			recordDate: 2014-12-03 00:00:00
			code: EML_NTF
			description: Email Notification
		№ 28
			recordDate: 2014-12-03 00:00:00
			code: MCTNF
			description: Mail Non-Final Rejection
		№ 29
			recordDate: 2014-11-28 00:00:00
			code: CTNF
			description: Non-Final Rejection
		№ 30
			recordDate: 2014-11-26 00:00:00
			code: IDSC
			description: Information Disclosure Statement considered
		№ 31
			recordDate: 2013-06-07 00:00:00
			code: DOCK
			description: Case Docketed to Examiner in GAU
		№ 32
			recordDate: 2013-04-24 00:00:00
			code: D5001
			description: Dispatch from OIPE to Corps - U-P-R-D Application
		№ 33
			recordDate: 2013-02-26 00:00:00
			code: EML_NTR
			description: Email Notification
		№ 34
			recordDate: 2013-02-26 00:00:00
			code: EML_NTR
			description: Email Notification
		№ 35
			recordDate: 2013-02-26 00:00:00
			code: PA..
			description: Change in Power of Attorney (May Include Associate POA)
		№ 36
			recordDate: 2013-02-26 00:00:00
			code: FLRCPT.O
			description: Filing Receipt
		№ 37
			recordDate: 2013-02-26 00:00:00
			code: COMP
			description: Application Is Now Complete
		№ 38
			recordDate: 2013-02-25 00:00:00
			code: PGPC
			description: Sent to Classification Contractor
		№ 39
			recordDate: 2013-02-02 00:00:00
			code: L194
			description: Cleared by OIPE CSR
		№ 40
			recordDate: 2013-01-29 00:00:00
			code: NPRQ
			description: PGPubs nonPub Request
		№ 41
			recordDate: 2013-01-29 00:00:00
			code: APPERMS
			description: Applicants have given acceptable permission for participating foreign 
		№ 42
			recordDate: 2013-01-29 00:00:00
			code: WIDS
			description: Information Disclosure Statement (IDS) Filed
		№ 43
			recordDate: 2013-01-29 00:00:00
			code: SCAN
			description: IFW Scan & PACR Auto Security Review
		№ 44
			recordDate: 2013-01-29 00:00:00
			code: IEXX
			description: Initial Exam Team nn
	appStatus: Patented Case
	appStatus_txt: Patented Case
	appStatusFacet: Patented Case
	patentNumber: 9117236
	applIdStr: 13753282
	appl_id_txt: 13753282
	appEarlyPubNumber: 
	appEntityStatus: UNDISCOUNTED
	id: 13753282
	appSubCls: 027100
	appLocation: ELECTRONIC
	appAttrDockNumber: AM2-0265USC1
	appType: Utility
	appTypeFacet: Utility
	appCustNumber: 29150
	applicants:
		№ 0
			nameLineOne: Amazon Technologies, Inc.
			nameLineTwo:  
			suffix: 
			streetOne: 
			streetTwo: 
			city: Reno, 
			geoCode: NV
			country: (US)
			rankNo: 2
	applicantsFacet: {|Amazon Technologies, Inc.||||Reno|NV|US|2}
	appStatusDate: 2015-08-05T09:34:35Z
	LAST_MOD_TS: 2017-04-05T08:22:16Z
	patentIssueDate: 2015-08-25T04:00:00Z
	APP_IND: 1
	appExamName: ROSEN, NICHOLAS D
	appExamNameFacet: ROSEN, NICHOLAS D
	firstInventorFile: No
	appClsSubCls: 705/027100
	appClsSubClsFacet: 705/027100
	applId: 13753282
	patentTitle: ESTABLISHING COMMUNICATION BASED ON ITEM INTEREST
	appIntlPubNumber: 
	appConfrNumber: 1057
	appFilingDate: 2013-01-29T05:00:00Z
	firstNamedApplicant:  Amazon Technologies, Inc.
	firstNamedApplicantFacet:  Amazon Technologies, Inc.
	inventors:
		№ 0
			nameLineOne: Brian J. Feinstein
			nameLineTwo:  
			suffix: 
			streetOne: 
			streetTwo: 
			city: Mercer Island, 
			geoCode: WA
			country: (US)
			rankNo: 1
	appCls: 705
	_version_: 1580433214039654404
	lastUpdatedTimestamp: 2017-10-05T15:49:25.038Z
METADATA:
	indexLastUpdatedDate: Sat Nov 25 14:40:32 EST 2017
	queryId: 043f6711-5f32-4b47-91a2-1be2571e614b
	responseHeader:
			status: 0
			QTime: 16
