DOCUMENT_BODY:
	appGrpArtNumber: 2487
	appGrpArtNumberFacet: 2487
	transactions:
		№ 0
			recordDate: 2016-06-27 00:00:00
			code: C.ADB
			description: Correspondence Address Change
		№ 1
			recordDate: 2016-03-15 00:00:00
			code: PGM/
			description: Recordation of Patent Grant Mailed
		№ 2
			recordDate: 2016-03-15 00:00:00
			code: PTAC
			description: Patent Issue Date Used in PTA Calculation
		№ 3
			recordDate: 2016-02-25 00:00:00
			code: EML_NTR
			description: Email Notification
		№ 4
			recordDate: 2016-02-24 00:00:00
			code: WPIR
			description: Issue Notification Mailed
		№ 5
			recordDate: 2016-02-12 00:00:00
			code: D1935
			description: Dispatch to FDC
		№ 6
			recordDate: 2016-02-11 00:00:00
			code: PILS
			description: Application Is Considered Ready for Issue
		№ 7
			recordDate: 2016-02-08 00:00:00
			code: N084
			description: Issue Fee Payment Verified
		№ 8
			recordDate: 2016-02-08 00:00:00
			code: IFEE
			description: Issue Fee Payment Received
		№ 9
			recordDate: 2015-11-20 00:00:00
			code: ELC_RVW
			description: Electronic Review
		№ 10
			recordDate: 2015-11-20 00:00:00
			code: EML_NTF
			description: Email Notification
		№ 11
			recordDate: 2015-11-20 00:00:00
			code: MN/=.
			description: Mail Notice of Allowance
		№ 12
			recordDate: 2015-11-18 00:00:00
			code: N/=.
			description: Notice of Allowance Data Verification Completed
		№ 13
			recordDate: 2015-11-16 00:00:00
			code: EX.R
			description: Reasons for Allowance
		№ 14
			recordDate: 2015-09-05 00:00:00
			code: FWDX
			description: Date Forwarded to Examiner
		№ 15
			recordDate: 2015-08-28 00:00:00
			code: A...
			description: Response after Non-Final Action
		№ 16
			recordDate: 2015-08-20 00:00:00
			code: MEXAT
			description: Mail Interview Summary - Applicant Initiated - Telephonic
		№ 17
			recordDate: 2015-08-13 00:00:00
			code: EXAT
			description: Interview Summary - Applicant Initiated - Telephonic
		№ 18
			recordDate: 2015-05-28 00:00:00
			code: ELC_RVW
			description: Electronic Review
		№ 19
			recordDate: 2015-05-28 00:00:00
			code: EML_NTF
			description: Email Notification
		№ 20
			recordDate: 2015-05-28 00:00:00
			code: MCTNF
			description: Mail Non-Final Rejection
		№ 21
			recordDate: 2015-05-21 00:00:00
			code: CTNF
			description: Non-Final Rejection
		№ 22
			recordDate: 2015-03-24 00:00:00
			code: DOCK
			description: Case Docketed to Examiner in GAU
		№ 23
			recordDate: 2015-03-23 00:00:00
			code: DOCK
			description: Case Docketed to Examiner in GAU
		№ 24
			recordDate: 2014-12-11 00:00:00
			code: DOCK
			description: Case Docketed to Examiner in GAU
		№ 25
			recordDate: 2014-08-26 00:00:00
			code: DOCK
			description: Case Docketed to Examiner in GAU
		№ 26
			recordDate: 2014-08-26 00:00:00
			code: DOCK
			description: Case Docketed to Examiner in GAU
		№ 27
			recordDate: 2014-05-13 00:00:00
			code: WROIPE
			description: Application Return from OIPE
		№ 28
			recordDate: 2014-05-13 00:00:00
			code: ROIPE
			description: Application Return TO OIPE
		№ 29
			recordDate: 2014-03-22 00:00:00
			code: EML_NTR
			description: Email Notification
		№ 30
			recordDate: 2014-03-20 00:00:00
			code: MM327
			description: Mail Miscellaneous Communication to Applicant
		№ 31
			recordDate: 2014-03-14 00:00:00
			code: M327
			description: Miscellaneous Communication to Applicant - No Action Count
		№ 32
			recordDate: 2014-02-28 00:00:00
			code: LET.
			description: Miscellaneous Incoming Letter
		№ 33
			recordDate: 2013-09-07 00:00:00
			code: DOCK
			description: Case Docketed to Examiner in GAU
		№ 34
			recordDate: 2013-08-02 00:00:00
			code: EML_NTR
			description: Email Notification
		№ 35
			recordDate: 2013-08-02 00:00:00
			code: PA..
			description: Change in Power of Attorney (May Include Associate POA)
		№ 36
			recordDate: 2013-05-06 00:00:00
			code: OIPE
			description: Application Dispatched from OIPE
		№ 37
			recordDate: 2013-03-27 00:00:00
			code: FLRCPT.O
			description: Filing Receipt
		№ 38
			recordDate: 2013-03-27 00:00:00
			code: FTFI
			description: FITF set to NO - revise initial setting
		№ 39
			recordDate: 2013-03-27 00:00:00
			code: PGPC
			description: Sent to Classification Contractor
		№ 40
			recordDate: 2013-03-27 00:00:00
			code: COMP
			description: Application Is Now Complete
		№ 41
			recordDate: 2013-03-05 00:00:00
			code: L194
			description: Cleared by OIPE CSR
		№ 42
			recordDate: 2013-03-01 00:00:00
			code: SCAN
			description: IFW Scan & PACR Auto Security Review
		№ 43
			recordDate: 2013-02-28 00:00:00
			code: APPERMS
			description: Applicants have given acceptable permission for participating foreign 
		№ 44
			recordDate: 2013-02-28 00:00:00
			code: NPRQ
			description: PGPubs nonPub Request
		№ 45
			recordDate: 2013-02-28 00:00:00
			code: IEXX
			description: Initial Exam Team nn
	appStatus: Patented Case
	appStatus_txt: Patented Case
	appStatusFacet: Patented Case
	patentNumber: 9288471
	applIdStr: 13781620
	appl_id_txt: 13781620
	appEarlyPubNumber: 
	appEntityStatus: UNDISCOUNTED
	id: 13781620
	appSubCls: 046000
	appLocation: ELECTRONIC
	appAttrDockNumber: 085101-526936.414NPUS00
	appType: Utility
	appTypeFacet: Utility
	appCustNumber: 136608
	applicants:
		№ 0
			nameLineOne: Amazon Technologies, Inc.
			nameLineTwo:  
			suffix: 
			streetOne: 
			streetTwo: 
			city: Reno, 
			geoCode: NV
			country: (US)
			rankNo: 2
	applicantsFacet: {|Amazon Technologies, Inc.||||Reno|NV|US|2}
	appStatusDate: 2016-02-24T13:25:30Z
	LAST_MOD_TS: 2017-04-05T08:22:16Z
	patentIssueDate: 2016-03-15T04:00:00Z
	APP_IND: 1
	appExamName: BECK, LERON
	appExamNameFacet: BECK, LERON
	firstInventorFile: No
	appClsSubCls: 348/046000
	appClsSubClsFacet: 348/046000
	applId: 13781620
	patentTitle: ROTATABLE IMAGING ASSEMBLY FOR PROVIDING MULTIPLE FIELDS OF VIEW
	appIntlPubNumber: 
	appConfrNumber: 1078
	appFilingDate: 2013-02-28T05:00:00Z
	firstNamedApplicant:  Amazon Technologies, Inc.
	firstNamedApplicantFacet:  Amazon Technologies, Inc.
	inventors:
		№ 0
			nameLineOne: Jung Sik  Yang
			nameLineTwo:  
			suffix: 
			streetOne: 
			streetTwo: 
			city: Santa Clara, 
			geoCode: CA
			country: (US)
			rankNo: 1
	appCls: 348
	_version_: 1580433220166483970
	lastUpdatedTimestamp: 2017-10-05T15:49:30.851Z
METADATA:
	indexLastUpdatedDate: Sat Nov 25 14:40:32 EST 2017
	queryId: 97c7c182-a293-42b3-a857-160cc92d5dd6
	responseHeader:
			status: 0
			QTime: 17
