DOCUMENT_BODY:
	appGrpArtNumber: 2665
	appGrpArtNumberFacet: 2665
	transactions:
		№ 0
			recordDate: 2016-07-19 00:00:00
			code: C.ADB
			description: Correspondence Address Change
		№ 1
			recordDate: 2015-05-19 00:00:00
			code: PGM/
			description: Recordation of Patent Grant Mailed
		№ 2
			recordDate: 2015-05-19 00:00:00
			code: PTAC
			description: Patent Issue Date Used in PTA Calculation
		№ 3
			recordDate: 2015-04-30 00:00:00
			code: EML_NTR
			description: Email Notification
		№ 4
			recordDate: 2015-04-29 00:00:00
			code: WPIR
			description: Issue Notification Mailed
		№ 5
			recordDate: 2015-04-20 00:00:00
			code: D1935
			description: Dispatch to FDC
		№ 6
			recordDate: 2015-04-17 00:00:00
			code: PILS
			description: Application Is Considered Ready for Issue
		№ 7
			recordDate: 2015-04-16 00:00:00
			code: N084
			description: Issue Fee Payment Verified
		№ 8
			recordDate: 2015-04-16 00:00:00
			code: IFEE
			description: Issue Fee Payment Received
		№ 9
			recordDate: 2015-01-30 00:00:00
			code: ELC_RVW
			description: Electronic Review
		№ 10
			recordDate: 2015-01-30 00:00:00
			code: EML_NTF
			description: Email Notification
		№ 11
			recordDate: 2015-01-30 00:00:00
			code: MN/=.
			description: Mail Notice of Allowance
		№ 12
			recordDate: 2015-01-27 00:00:00
			code: N/=.
			description: Notice of Allowance Data Verification Completed
		№ 13
			recordDate: 2015-01-21 00:00:00
			code: FWDX
			description: Date Forwarded to Examiner
		№ 14
			recordDate: 2015-01-05 00:00:00
			code: XT/G
			description: Request for Extension of Time - Granted
		№ 15
			recordDate: 2015-01-05 00:00:00
			code: A...
			description: Response after Non-Final Action
		№ 16
			recordDate: 2014-09-03 00:00:00
			code: ELC_RVW
			description: Electronic Review
		№ 17
			recordDate: 2014-09-03 00:00:00
			code: EML_NTF
			description: Email Notification
		№ 18
			recordDate: 2014-09-03 00:00:00
			code: MCTNF
			description: Mail Non-Final Rejection
		№ 19
			recordDate: 2014-08-26 00:00:00
			code: CTNF
			description: Non-Final Rejection
		№ 20
			recordDate: 2014-07-16 00:00:00
			code: DOCK
			description: Case Docketed to Examiner in GAU
		№ 21
			recordDate: 2014-07-14 00:00:00
			code: DOCK
			description: Case Docketed to Examiner in GAU
		№ 22
			recordDate: 2014-03-05 00:00:00
			code: DOCK
			description: Case Docketed to Examiner in GAU
		№ 23
			recordDate: 2013-07-31 00:00:00
			code: EML_NTR
			description: Email Notification
		№ 24
			recordDate: 2013-07-31 00:00:00
			code: PA..
			description: Change in Power of Attorney (May Include Associate POA)
		№ 25
			recordDate: 2013-06-03 00:00:00
			code: DOCK
			description: Case Docketed to Examiner in GAU
		№ 26
			recordDate: 2013-05-10 00:00:00
			code: OIPE
			description: Application Dispatched from OIPE
		№ 27
			recordDate: 2013-04-29 00:00:00
			code: COMP
			description: Application Is Now Complete
		№ 28
			recordDate: 2013-04-29 00:00:00
			code: FLRCPT.O
			description: Filing Receipt
		№ 29
			recordDate: 2013-04-26 00:00:00
			code: FTFI
			description: FITF set to NO - revise initial setting
		№ 30
			recordDate: 2013-04-26 00:00:00
			code: PGPC
			description: Sent to Classification Contractor
		№ 31
			recordDate: 2013-03-26 00:00:00
			code: L194
			description: Cleared by OIPE CSR
		№ 32
			recordDate: 2013-03-18 00:00:00
			code: SCAN
			description: IFW Scan & PACR Auto Security Review
		№ 33
			recordDate: 2013-03-14 00:00:00
			code: NPRQ
			description: PGPubs nonPub Request
		№ 34
			recordDate: 2013-03-14 00:00:00
			code: APPERMS
			description: Applicants have given acceptable permission for participating foreign 
		№ 35
			recordDate: 2013-03-14 00:00:00
			code: IEXX
			description: Initial Exam Team nn
	appStatus: Patented Case
	appStatus_txt: Patented Case
	appStatusFacet: Patented Case
	patentNumber: 9036943
	applIdStr: 13830936
	appl_id_txt: 13830936
	appEarlyPubNumber: 
	appEntityStatus: UNDISCOUNTED
	id: 13830936
	appSubCls: 173000
	appLocation: ELECTRONIC
	appAttrDockNumber: 085101-526926.404NPUS00
	appType: Utility
	appTypeFacet: Utility
	appCustNumber: 136608
	applicants:
		№ 0
			nameLineOne: Amazon Technologies, Inc.
			nameLineTwo:  
			suffix: 
			streetOne: 
			streetTwo: 
			city: Reno, 
			geoCode: NV
			country: (US)
			rankNo: 2
	applicantsFacet: {|Amazon Technologies, Inc.||||Reno|NV|US|2}
	appStatusDate: 2015-04-29T10:55:35Z
	LAST_MOD_TS: 2017-04-05T08:22:16Z
	patentIssueDate: 2015-05-19T04:00:00Z
	APP_IND: 1
	appExamName: LIU, LI
	appExamNameFacet: LIU, LI
	firstInventorFile: No
	appClsSubCls: 382/173000
	appClsSubClsFacet: 382/173000
	applId: 13830936
	patentTitle: CLOUD-BASED IMAGE IMPROVEMENT
	appIntlPubNumber: 
	appConfrNumber: 7806
	appFilingDate: 2013-03-14T04:00:00Z
	firstNamedApplicant:  Amazon Technologies, Inc.
	firstNamedApplicantFacet:  Amazon Technologies, Inc.
	inventors:
		№ 0
			nameLineOne: Leo Benedict Baldwin
			nameLineTwo:  
			suffix: 
			streetOne: 
			streetTwo: 
			city: San Jose, 
			geoCode: CA
			country: (US)
			rankNo: 1
	appCls: 382
	_version_: 1580433230259027973
	lastUpdatedTimestamp: 2017-10-05T15:49:40.508Z
METADATA:
	indexLastUpdatedDate: Sat Nov 25 14:40:32 EST 2017
	queryId: 791bb353-5cc2-4f42-8948-5645f9c7ff30
	responseHeader:
			status: 0
			QTime: 19
