DOCUMENT_BODY:
	appGrpArtNumber: 2676
	appGrpArtNumberFacet: 2676
	transactions:
		№ 0
			recordDate: 2015-08-31 00:00:00
			code: CCRDY
			description: Application ready for PDX access by participating foreign offices
		№ 1
			recordDate: 2015-06-23 00:00:00
			code: PGM/
			description: Recordation of Patent Grant Mailed
		№ 2
			recordDate: 2015-06-23 00:00:00
			code: PTAC
			description: Patent Issue Date Used in PTA Calculation
		№ 3
			recordDate: 2015-06-05 00:00:00
			code: EML_NTR
			description: Email Notification
		№ 4
			recordDate: 2015-06-03 00:00:00
			code: WPIR
			description: Issue Notification Mailed
		№ 5
			recordDate: 2015-05-21 00:00:00
			code: D1935
			description: Dispatch to FDC
		№ 6
			recordDate: 2015-05-21 00:00:00
			code: PILS
			description: Application Is Considered Ready for Issue
		№ 7
			recordDate: 2015-05-20 00:00:00
			code: REAS
			description: Response to Reasons for Allowance
		№ 8
			recordDate: 2015-05-20 00:00:00
			code: N084
			description: Issue Fee Payment Verified
		№ 9
			recordDate: 2015-05-20 00:00:00
			code: IFEE
			description: Issue Fee Payment Received
		№ 10
			recordDate: 2015-03-03 00:00:00
			code: ELC_RVW
			description: Electronic Review
		№ 11
			recordDate: 2015-03-03 00:00:00
			code: EML_NTF
			description: Email Notification
		№ 12
			recordDate: 2015-03-03 00:00:00
			code: MN/=.
			description: Mail Notice of Allowance
		№ 13
			recordDate: 2015-02-25 00:00:00
			code: N/=.
			description: Notice of Allowance Data Verification Completed
		№ 14
			recordDate: 2015-02-22 00:00:00
			code: EX.R
			description: Reasons for Allowance
		№ 15
			recordDate: 2015-01-13 00:00:00
			code: DOCK
			description: Case Docketed to Examiner in GAU
		№ 16
			recordDate: 2015-01-05 00:00:00
			code: DOCK
			description: Case Docketed to Examiner in GAU
		№ 17
			recordDate: 2013-11-18 00:00:00
			code: DOCK
			description: Case Docketed to Examiner in GAU
		№ 18
			recordDate: 2013-07-24 00:00:00
			code: C602
			description: Oath or Declaration Filed (Including Supplemental)
		№ 19
			recordDate: 2013-06-25 00:00:00
			code: OIPE
			description: Application Dispatched from OIPE
		№ 20
			recordDate: 2013-06-14 00:00:00
			code: EML_NTR
			description: Email Notification
		№ 21
			recordDate: 2013-06-14 00:00:00
			code: COMP
			description: Application Is Now Complete
		№ 22
			recordDate: 2013-06-14 00:00:00
			code: FLRCPT.O
			description: Filing Receipt
		№ 23
			recordDate: 2013-06-13 00:00:00
			code: FTFS
			description: FITF set to YES - revise initial setting
		№ 24
			recordDate: 2013-06-13 00:00:00
			code: PGPC
			description: Sent to Classification Contractor
		№ 25
			recordDate: 2013-05-13 00:00:00
			code: L128
			description: Cleared by L&R (LARS)
		№ 26
			recordDate: 2013-05-13 00:00:00
			code: L198
			description: Referred to Level 2 (LARS) by OIPE CSR
		№ 27
			recordDate: 2013-05-07 00:00:00
			code: NPRQ
			description: PGPubs nonPub Request
		№ 28
			recordDate: 2013-05-07 00:00:00
			code: SCAN
			description: IFW Scan & PACR Auto Security Review
		№ 29
			recordDate: 2013-05-07 00:00:00
			code: BIG.
			description: ENTITY STATUS SET TO UNDISCOUNTED (INITIAL DEFAULT SETTING OR STATUS CHANGE)
		№ 30
			recordDate: 2013-05-07 00:00:00
			code: IEXX
			description: Initial Exam Team nn
	appStatus: Patented Case
	appStatus_txt: Patented Case
	appStatusFacet: Patented Case
	patentNumber: 9064495
	applIdStr: 13889277
	appl_id_txt: 13889277
	appEarlyPubNumber: 
	appEntityStatus: UNDISCOUNTED
	id: 13889277
	appSubCls: 253000
	appLocation: ELECTRONIC
	appAttrDockNumber: SEAZN.814A
	appType: Utility
	appTypeFacet: Utility
	appCustNumber: 79502
	applicants:
		№ 0
			nameLineOne: Amazon Technologies, Inc.
			nameLineTwo:  
			suffix: 
			streetOne: 
			streetTwo: 
			city: Reno, 
			geoCode: NV
			country: (US)
			rankNo: 3
	applicantsFacet: {|Amazon Technologies, Inc.||||Reno|NV|US|3}
	appStatusDate: 2015-06-03T10:04:49Z
	LAST_MOD_TS: 2017-04-05T08:22:16Z
	patentIssueDate: 2015-06-23T04:00:00Z
	APP_IND: 1
	appExamName: BAKER, CHARLOTTE M
	appExamNameFacet: BAKER, CHARLOTTE M
	firstInventorFile: Yes
	appClsSubCls: 704/253000
	appClsSubClsFacet: 704/253000
	applId: 13889277
	patentTitle: MEASUREMENT OF USER PERCEIVED LATENCY IN A CLOUD BASED SPEECH APPLICATION
	appIntlPubNumber: 
	appConfrNumber: 6357
	appFilingDate: 2013-05-07T04:00:00Z
	firstNamedApplicant:  Amazon Technologies, Inc.
	firstNamedApplicantFacet:  Amazon Technologies, Inc.
	inventors:
		№ 0
			nameLineOne: Fred  Torok
			nameLineTwo:  
			suffix: 
			streetOne: 
			streetTwo: 
			city: Seattle, 
			geoCode: CA
			country: (US)
			rankNo: 1
		№ 1
			nameLineOne: Peter Spalding VanLund
			nameLineTwo:  
			suffix: 
			streetOne: 
			streetTwo: 
			city: Seattle, 
			geoCode: WA
			country: (US)
			rankNo: 2
	appCls: 704
	_version_: 1580433242106888192
	lastUpdatedTimestamp: 2017-10-05T15:49:51.757Z
METADATA:
	indexLastUpdatedDate: Sat Nov 25 14:40:32 EST 2017
	queryId: 8a5d78fb-c4aa-4695-8abb-3e524687bf44
	responseHeader:
			status: 0
			QTime: 18
