DOCUMENT_BODY:
	appGrpArtNumber: 2112
	appGrpArtNumberFacet: 2112
	transactions:
		№ 0
			recordDate: 2015-05-05 00:00:00
			code: PGM/
			description: Recordation of Patent Grant Mailed
		№ 1
			recordDate: 2015-05-05 00:00:00
			code: PTAC
			description: Patent Issue Date Used in PTA Calculation
		№ 2
			recordDate: 2015-04-16 00:00:00
			code: EML_NTR
			description: Email Notification
		№ 3
			recordDate: 2015-04-15 00:00:00
			code: WPIR
			description: Issue Notification Mailed
		№ 4
			recordDate: 2015-04-08 00:00:00
			code: D1935
			description: Dispatch to FDC
		№ 5
			recordDate: 2015-04-07 00:00:00
			code: PILS
			description: Application Is Considered Ready for Issue
		№ 6
			recordDate: 2015-04-06 00:00:00
			code: REAS
			description: Response to Reasons for Allowance
		№ 7
			recordDate: 2015-04-06 00:00:00
			code: N084
			description: Issue Fee Payment Verified
		№ 8
			recordDate: 2015-04-06 00:00:00
			code: IFEE
			description: Issue Fee Payment Received
		№ 9
			recordDate: 2015-01-20 00:00:00
			code: ELC_RVW
			description: Electronic Review
		№ 10
			recordDate: 2015-01-20 00:00:00
			code: EML_NTF
			description: Email Notification
		№ 11
			recordDate: 2015-01-20 00:00:00
			code: MN/=.
			description: Mail Notice of Allowance
		№ 12
			recordDate: 2015-01-13 00:00:00
			code: N/=.
			description: Notice of Allowance Data Verification Completed
		№ 13
			recordDate: 2015-01-12 00:00:00
			code: EX.R
			description: Reasons for Allowance
		№ 14
			recordDate: 2015-01-06 00:00:00
			code: FWDX
			description: Date Forwarded to Examiner
		№ 15
			recordDate: 2014-12-29 00:00:00
			code: A...
			description: Response after Non-Final Action
		№ 16
			recordDate: 2014-12-29 00:00:00
			code: MEXAT
			description: Mail Interview Summary - Applicant Initiated - Telephonic
		№ 17
			recordDate: 2014-12-18 00:00:00
			code: EXIA
			description: Interview Summary- Applicant Initiated
		№ 18
			recordDate: 2014-12-18 00:00:00
			code: EXAT
			description: Interview Summary - Applicant Initiated - Telephonic
		№ 19
			recordDate: 2014-10-01 00:00:00
			code: ELC_RVW
			description: Electronic Review
		№ 20
			recordDate: 2014-10-01 00:00:00
			code: EML_NTF
			description: Email Notification
		№ 21
			recordDate: 2014-10-01 00:00:00
			code: MCTNF
			description: Mail Non-Final Rejection
		№ 22
			recordDate: 2014-09-26 00:00:00
			code: CTNF
			description: Non-Final Rejection
		№ 23
			recordDate: 2013-12-30 00:00:00
			code: DOCK
			description: Case Docketed to Examiner in GAU
		№ 24
			recordDate: 2013-11-25 00:00:00
			code: DOCK
			description: Case Docketed to Examiner in GAU
		№ 25
			recordDate: 2013-11-21 00:00:00
			code: DOCK
			description: Case Docketed to Examiner in GAU
		№ 26
			recordDate: 2013-08-26 00:00:00
			code: DOCK
			description: Case Docketed to Examiner in GAU
		№ 27
			recordDate: 2013-08-12 00:00:00
			code: DOCK
			description: Case Docketed to Examiner in GAU
		№ 28
			recordDate: 2013-07-19 00:00:00
			code: DOCK
			description: Case Docketed to Examiner in GAU
		№ 29
			recordDate: 2013-03-20 00:00:00
			code: DOCK
			description: Case Docketed to Examiner in GAU
		№ 30
			recordDate: 2013-03-04 00:00:00
			code: TI1050
			description: Transfer Inquiry to GAU
		№ 31
			recordDate: 2013-02-26 00:00:00
			code: EML_NTR
			description: Email Notification
		№ 32
			recordDate: 2013-02-26 00:00:00
			code: EML_NTR
			description: Email Notification
		№ 33
			recordDate: 2013-02-26 00:00:00
			code: PA..
			description: Change in Power of Attorney (May Include Associate POA)
		№ 34
			recordDate: 2013-02-26 00:00:00
			code: FLRCPT.R
			description: Filing Receipt - Replacement
		№ 35
			recordDate: 2012-12-10 00:00:00
			code: OIPE
			description: Application Dispatched from OIPE
		№ 36
			recordDate: 2012-11-28 00:00:00
			code: EML_NTR
			description: Email Notification
		№ 37
			recordDate: 2012-11-28 00:00:00
			code: COMP
			description: Application Is Now Complete
		№ 38
			recordDate: 2012-11-28 00:00:00
			code: FLRCPT.O
			description: Filing Receipt
		№ 39
			recordDate: 2012-11-27 00:00:00
			code: PGPC
			description: Sent to Classification Contractor
		№ 40
			recordDate: 2012-11-05 00:00:00
			code: L194
			description: Cleared by OIPE CSR
		№ 41
			recordDate: 2012-11-01 00:00:00
			code: NPRQ
			description: PGPubs nonPub Request
		№ 42
			recordDate: 2012-11-01 00:00:00
			code: APPERMS
			description: Applicants have given acceptable permission for participating foreign 
		№ 43
			recordDate: 2012-11-01 00:00:00
			code: SCAN
			description: IFW Scan & PACR Auto Security Review
		№ 44
			recordDate: 2012-11-01 00:00:00
			code: IEXX
			description: Initial Exam Team nn
	appStatus: Patented Case
	appStatus_txt: Patented Case
	appStatusFacet: Patented Case
	patentNumber: 9026869
	applIdStr: 13666855
	appl_id_txt: 13666855
	appEarlyPubNumber: 
	appEntityStatus: UNDISCOUNTED
	id: 13666855
	appSubCls: 718000
	appLocation: ELECTRONIC
	appAttrDockNumber: 90204-850417 (058900US)
	appType: Utility
	appTypeFacet: Utility
	appCustNumber: 107508
	applicants:
		№ 0
			nameLineOne: Amazon Technologies, Inc.
			nameLineTwo:  
			suffix: 
			streetOne: 
			streetTwo: 
			city: Reno, 
			geoCode: NV
			country: (US)
			rankNo: 6
	applicantsFacet: {|Amazon Technologies, Inc.||||Reno|NV|US|6}
	appStatusDate: 2015-04-15T10:49:04Z
	LAST_MOD_TS: 2017-04-05T08:22:16Z
	patentIssueDate: 2015-05-05T04:00:00Z
	APP_IND: 1
	appExamName: KABIR, ENAMUL MD
	appExamNameFacet: KABIR, ENAMUL MD
	firstInventorFile: No
	appClsSubCls: 714/718000
	appClsSubClsFacet: 714/718000
	applId: 13666855
	patentTitle: IMPORTANCE-BASED DATA STORAGE VERIFICATION
	appIntlPubNumber: 
	appConfrNumber: 3001
	appFilingDate: 2012-11-01T04:00:00Z
	firstNamedApplicant:  Amazon Technologies, Inc.
	firstNamedApplicantFacet:  Amazon Technologies, Inc.
	inventors:
		№ 0
			nameLineOne: Yi  Li
			nameLineTwo:  
			suffix: 
			streetOne: 
			streetTwo: 
			city: Vestal, 
			geoCode: NY
			country: (US)
			rankNo: 1
		№ 1
			nameLineOne: Danny  Wei
			nameLineTwo:  
			suffix: 
			streetOne: 
			streetTwo: 
			city: Seatttle, 
			geoCode: WA
			country: (US)
			rankNo: 2
		№ 2
			nameLineOne: Kerry Quintin Lee
			nameLineTwo:  
			suffix: 
			streetOne: 
			streetTwo: 
			city: Seattle, 
			geoCode: WA
			country: (US)
			rankNo: 3
		№ 3
			nameLineOne: Mahmood  Miah
			nameLineTwo:  
			suffix: 
			streetOne: 
			streetTwo: 
			city: Seattle, 
			geoCode: WA
			country: (US)
			rankNo: 4
		№ 4
			nameLineOne: Nandakumar  Gopalakrishnan
			nameLineTwo:  
			suffix: 
			streetOne: 
			streetTwo: 
			city: Seattle, 
			geoCode: WA
			country: (US)
			rankNo: 5
	appCls: 714
	_version_: 1580433196259999745
	lastUpdatedTimestamp: 2017-10-05T15:49:08.045Z
METADATA:
	indexLastUpdatedDate: Sat Nov 25 14:40:32 EST 2017
	queryId: a90b2916-4a41-40a9-9c00-a319afeb849f
	responseHeader:
			status: 0
			QTime: 15
